…
In this table, to put the variables (X, Y, and Z) into a new variable "stock", and al the values to a new variable "price", it can be achieved via below:


```r
gather(stocks, key = "stock", value = "price", -time)
```

```
## # A tibble: 30 × 3
##    time       stock   price
##    <date>     <chr>   <dbl>
##  1 2009-01-01 X      0.208 
##  2 2009-01-02 X      2.40  
##  3 2009-01-03 X     -0.424 
##  4 2009-01-04 X      0.0343
##  5 2009-01-05 X      0.814 
##  6 2009-01-06 X     -0.361 
##  7 2009-01-07 X     -1.59  
##  8 2009-01-08 X     -1.15  
##  9 2009-01-09 X     -1.20  
## 10 2009-01-10 X      2.23  
## # … with 20 more rows
```
